Creating, Writing, Querying, and Modifying SQL Database from R using odbc, dbplyr, and DBI · goonR blog
…
## Unit: milliseconds
##        expr      min       lq     mean   median       uq      max neval
##  read_table 91.36283 94.55963 115.4623 98.51866 150.1218 175.2671   100
##       query 90.61233 93.50576 111.0308 98.11973 113.0769 181.2567   100

It looks like the dbReadTable method is slightly faster than a full query. However, the real benefit to using dbGetQuery is the ability to write much more complex sql queries. For example, if we want to subset the data, we are able to.

query <- paste("select carat, cut, clarity, color, price from diamonds",
               "where carat > 1 and cut = 'Ideal'")
dbGetQuery(con, query) %>%
  as.tibble()

## # A tibble: 5,662 x 5
##    carat   cut clarity color price
##    <dbl> <chr>   <chr> <chr> <int>
##  1  1.01 Ideal      I1     I  2844
##  2  1.02 Ideal     SI2     H  2856
##  3  1.02 Ideal      I1     I  2872
##  4  1.02 Ideal     SI2     J  2879
##  5  1.01 Ideal      I1     I  2896
##  6  1.02 Ideal      I1     I  2925
##  7  1.14 Ideal     SI1     J  3045
##  8  1.02 Ideal     SI2     H  3142
##  9  1.06 Ideal     SI2     I  3146
## 10  1.02 Ideal     VS2     I  3148
## # ... with 5,652 more rows

This particular query returned just over 10% of the total data with 5,662 rows matching the conditions set. This feature is extremely important when dealing with database that house extremely large amounts of data. Having to query full tables would be extemely unfeasible in most situations.

In addition to writing more complex sql queries, the dbplyr package allows for R users to avoid having to write queries at all. This package allows users to create a reference to the sql table and interact with it using typical dplyr verbs. We can recreate the query above using this method. First we will use the tbl function to create the reference to the diamonds table in the database. Then we will be able to use that reference with all of our favorite dplyr verbs.

diamonds_tbl <- tbl(con, "diamonds")

diamonds_tbl %>%
  select(carat, cut, clarity, color, price) %>%
  filter(carat > 1, 
         cut == "Ideal") %>% 
  collect() %>%
  as.tibble()

## # A tibble: 5,662 x 5
##    carat   cut clarity color price
##    <dbl> <chr>   <chr> <chr> <int>
##  1  1.01 Ideal      I1     I  2844
##  2  1.02 Ideal     SI2     H  2856
##  3  1.02 Ideal      I1     I  2872
##  4  1.02 Ideal     SI2     J  2879
##  5  1.01 Ideal      I1     I  2896
##  6  1.02 Ideal      I1     I  2925
##  7  1.14 Ideal     SI1     J  3045
##  8  1.02 Ideal     SI2     H  3142
##  9  1.06 Ideal     SI2     I  3146
## 10  1.02 Ideal     VS2     I  3148
## # ... with 5,652 more rows
…
dbSendQuery(con, update_query)

## <SQLiteResult>
##   SQL  update cars set mpg = 20 where cyl = 6
##   ROWS Fetched: 0 [complete]
##        Changed: 7

We can see that 7 rows were changed in the database. Let’s now query the database and see how the table now looks.

dbGetQuery(con, "select * from cars") %>%
  as.tibble()

## # A tibble: 32 x 12
##              rowname   mpg   cyl  disp    hp  drat    wt  qsec    vs    am
##                <chr> <dbl> <dbl> <dbl> <dbl> <dbl> <dbl> <dbl> <dbl> <dbl>
##  1         Mazda RX4  20.0     6 160.0   110  3.90 2.620 16.46     0     1
##  2     Mazda RX4 Wag  20.0     6 160.0   110  3.90 2.875 17.02     0     1
##  3        Datsun 710  22.8     4 108.0    93  3.85 2.320 18.61     1     1
##  4    Hornet 4 Drive  20.0     6 258.0   110  3.08 3.215 19.44     1     0
##  5 Hornet Sportabout  18.7     8 360.0   175  3.15 3.440 17.02     0     0
##  6           Valiant  20.0     6 225.0   105  2.76 3.460 20.22     1     0
##  7        Duster 360  14.3     8 360.0   245  3.21 3.570 15.84     0     0
##  8         Merc 240D  24.4     4 146.7    62  3.69 3.190 20.00     1     0
##  9          Merc 230  22.8     4 140.8    95  3.92 3.150 22.90     1     0
## 10          Merc 280  20.0     6 167.6   123  3.92 3.440 18.30     1     0
## # ... with 22 more rows, and 2 more variables: gear <dbl>, carb <dbl>
…
