PCA in a tidy(verse) framework · goonR blog
…
UrbanPop - a numeric percentage of the urban population per state (i.e. the percentage of the state’s population that lives in cities)

Rape - the number of rape arrests per 100,000 people in a given state

Now, that we see how the data set is set up, let’s try to visualize the data as it is. Before we do that, let’s convert the data set to a tibble. Since tibbles do not support rownames, we will have to convert them to their own column with rownames_to_column.

us_arrests <- USArrests %>% 
  rownames_to_column(var = "state") %>% 
  # I prefer column names to be all lowercase so I am going to change them here
  rename_all(tolower) %>% 
  as_tibble()

us_arrests

## # A tibble: 50 x 5
##    state       murder assault urbanpop  rape
##    <chr>        <dbl>   <int>    <int> <dbl>
##  1 Alabama      13.2      236       58  21.2
##  2 Alaska       10.0      263       48  44.5
##  3 Arizona       8.10     294       80  31.0
##  4 Arkansas      8.80     190       50  19.5
##  5 California    9.00     276       91  40.6
##  6 Colorado      7.90     204       78  38.7
##  7 Connecticut   3.30     110       77  11.1
##  8 Delaware      5.90     238       72  15.8
##  9 Florida      15.4      335       80  31.9
## 10 Georgia      17.4      211       60  25.8
## # ... with 40 more rows
…
