dragondown: A bookdown template for writing your thesis/dissertation at Drexel University in R · goonR blog
…
1. Easily integrate your text with your analyses.

R and Rmarkdown allows you to easily integrate text and your analyses (in the form of R, python, or SQL code). The dragondown package then provides the required templates so that when your knit your Rmarkdown (in this case a bookdown) project it will conform to Drexel’s various requirements for the formatting of a thesis/dissertation. This is incredibly powerful, and can save you a lot of time when you are trying to put the finishing touches on your project. Instead of having to spend a crazy amount of time making sure that every figure and table meets the right requirements and your front matter and back matter all meet the requirements, the dragondwon package takes care of that for you. This will allow you to spend your time on what you really care about, your work!

For example, let’s pretend that you have a data set named diamonds.csv (credit to the ggplot2) package. You can easily load it in your Rmarkdown file directly with your text in a code chunk like below:

library(dplyr)
library(readr)

diamonds <- read_csv("dragondown-files/diamonds.csv")

diamonds

## # A tibble: 53,940 x 10
##    carat cut       color clarity depth table price     x     y     z
##    <dbl> <chr>     <chr> <chr>   <dbl> <dbl> <dbl> <dbl> <dbl> <dbl>
##  1 0.23  Ideal     E     SI2      61.5    55   326  3.95  3.98  2.43
##  2 0.21  Premium   E     SI1      59.8    61   326  3.89  3.84  2.31
##  3 0.23  Good      E     VS1      56.9    65   327  4.05  4.07  2.31
##  4 0.290 Premium   I     VS2      62.4    58   334  4.2   4.23  2.63
##  5 0.31  Good      J     SI2      63.3    58   335  4.34  4.35  2.75
##  6 0.24  Very Good J     VVS2     62.8    57   336  3.94  3.96  2.48
##  7 0.24  Very Good I     VVS1     62.3    57   336  3.95  3.98  2.47
##  8 0.26  Very Good H     SI1      61.9    55   337  4.07  4.11  2.53
##  9 0.22  Fair      E     VS2      65.1    61   337  3.87  3.78  2.49
## 10 0.23  Very Good H     VS1      59.4    61   338  4     4.05  2.39
## # … with 53,930 more rows
…
